Name,Sex,Equipment,Country,Division,BodyweightKg,WeightClassKg,Squat1Kg,Squat2Kg,Squat3Kg,Best3SquatKg,Bench1Kg,Bench2Kg,Bench3Kg,Best3BenchKg,Deadlift1Kg,Deadlift2Kg,Deadlift3Kg,Best3DeadliftKg,TotalKg,Place,Event,BirthDate
Adam Koh Xuan Ming,M,Raw,Singapore,Men's Raw Junior,65.7,66,182.5,192.5,200,200,102.5,112.5,-117.5,112.5,-192.5,197.5,210,210,522.5,3,SBD,
Ryan Low Tse Loong,M,Raw,Singapore,Men's Raw Junior,73.85,74,195,207.5,217.5,217.5,112.5,117.5,120,120,225,235,242.5,242.5,580,2,SBD,
Jeremy Reign Bautista,F,Raw,Philippines,Women's Raw Junior,53.9,57,120,-125,-125,120,75,82.5,-85,82.5,-150,150,153.5,153.5,356,1,SBD,
Chai Bor Ren,M,Raw,Malaysia,Men's Raw Open,91.65,93,275,-290,290,290,175,182.5,-185,182.5,300,-315,-315,300,772.5,1,SBD,
Matthias Yap,M,Raw,Singapore,Men's Raw Junior,74,74,215,222.5,-227.5,222.5,120,-125,125,125,220,225,232.5,232.5,580,3,SBD,
Jarrell Soon Bing-Yang,M,Raw,Singapore,Men's Raw Junior,66.05,74,,,,,,,,,,,,,,DQ,SBD,
Eric Chin Haw Wai,M,Raw,Malaysia,Men's Raw Open,82.4,83,240,250,257.5,257.5,150,155,-157.5,155,-275,275,-287.5,275,687.5,2,SBD,
Nigel Ng Wei Jun,M,Raw,Singapore,Men's Raw Junior,82.05,83,225,237.5,247.5,247.5,160,167.5,173.5,173.5,265,277.5,-290,277.5,698.5,1,SBD,
Bea Piedad,F,Raw,Philippines,Women's Raw Junior,96.7,84+,135,142.5,150,150,67.5,72.5,-75,72.5,140,150,160,160,382.5,1,SBD,
Matrix Neo Keong Wee,M,Raw,Singapore,Men's Raw Junior,80.2,83,-210,-210,220,220,147.5,152.5,155,155,245,-255,260,260,635,4,SBD,
Harisean Lingam,M,Raw,Singapore,Men's Raw Junior,90.05,93,170,182.5,192.5,192.5,105,110,115,115,195,212.5,-240,212.5,520,4,SBD,
Mark Anthony Enriquez,M,Raw,Singapore,Men's Raw Master I,,74,,,,,,,,,,,,,,DQ,SBD,
Seh Huan Kiat,M,Raw,Singapore,Men's Raw Master I,118,120,-205,212.5,227.5,227.5,120,127.5,135,135,220,242.5,-257.5,242.5,605,1,SBD,
Shaifulizzam B M Rouse,M,Raw,Singapore,Men's Raw Master I,126.25,120+,210,220,227.5,227.5,122.5,127.5,-132.5,127.5,255,265,-267.5,265,620,1,SBD,
Tetsuo Koike,M,Raw,Singapore,Men's Raw Master II,73.45,74,140,150,,150,110,-120,-130,110,187.5,-200,200,200,460,1,SBD,
Junichi Yokogi,M,Raw,Singapore,Men's Raw Master II,81.5,83,172.5,180,185,185,135,-142.5,-142.5,135,195,205,210,210,530,1,SBD,
Mohd Yasir Almakky Harun,M,Raw,Singapore,Men's Raw Master II,98.9,105,190,202.5,215,215,115,122.5,125,125,195,210,220,220,560,1,SBD,
Loh Cen Hao,M,Raw,Malaysia,Men's Raw Junior,103.8,105,260,270,,270,160,167.5,-172.5,167.5,295,-311,-311,295,732.5,1,SBD,
Lee Chee Wan,M,Raw,Singapore,Men's Raw Open,58.5,59,162.5,172.5,177.5,177.5,97.5,107.5,-112.5,107.5,195,207.5,215,215,500,3,SBD,
Ma. Angelica Savillo,F,Raw,Philippines,Women's Raw Open,56.8,57,142.5,150,155.5,155.5,85,90,92.5,92.5,152.5,162.5,-167.5,162.5,410.5,1,SBD,
Koh Xin Miao,M,Raw,Singapore,Men's Raw Open,65.35,66,205,220,230,230,127.5,135,-137.5,135,227.5,245,250,250,615,1,SBD,
Jeremy Reign Bautista,F,Raw,Philippines,Women's Raw Open,53.9,57,120,-125,-125,120,75,82.5,-85,82.5,-150,150,153.5,153.5,356,3,SBD,
Loh Cen Hao,M,Raw,Malaysia,Men's Raw Open,103.8,105,260,270,,270,160,167.5,-172.5,167.5,295,-311,-311,295,732.5,1,SBD,
Meiske Dewi Tania,F,Raw,Indonesia,Women's Raw Open,55.5,57,100,107.5,-112.5,107.5,65,70,72.5,72.5,140,150,-162.5,150,330,5,SBD,
Ong Wei Chaai,M,Raw,Singapore,Men's Raw Open,65.7,66,210,220,230,230,112.5,117.5,120,120,265,-275,-275,265,615,2,SBD,
Christine Erine Alejandro,F,Raw,Philippines,Women's Raw Open,61.05,63,120,125,130,130,62.5,67.5,-70,67.5,160,167.5,172.5,172.5,370,1,SBD,
Ahmad Hisham Akmal Bin Ahmad Tarmizi,M,Raw,Malaysia,Men's Raw Open,65.75,66,207.5,215,-225,215,125,-130,130,130,230,-247.5,-252.5,230,575,4,SBD,
Rikki Dianne Saul,F,Raw,Philippines,Women's Raw Open,67.75,69,112.5,-117.5,-120.5,112.5,57.5,62.5,63.5,63.5,150,160,-170,160,336,1,SBD,
Clinton Lee,M,Raw,Singapore,Men's Raw Open,73.95,74,240,257.5,265,265,157.5,165,170,170,282.5,-300,-300,282.5,717.5,1,SBD,
Joyce Gail Reboton,F,Raw,Philippines,Women's Raw Open,75.65,76,197.5,-203,203,203,102.5,108,110.5,110.5,192.5,200,-208,200,513.5,1,SBD,
Vinoth P,M,Raw,Singapore,Men's Raw Open,73.4,74,-235,235,245,245,-135,142.5,-145,142.5,260,-270,-270,260,647.5,2,SBD,
Christophe Ang,M,Raw,Singapore,Men's Raw Open,82.5,83,230,245,-250,245,-185,185,-190,185,272.5,292.5,-300,292.5,722.5,1,SBD,
Cornelius Tang,M,Raw,Singapore,Men's Raw Open,79.7,83,215,222.5,230,230,125,130,-135,130,255,270,280,280,640,3,SBD,
Hud Syafiq Herman,M,Raw,Singapore,Men's Raw Open,90.6,93,215,225,230,230,167.5,172.5,175,175,250,262.5,270,270,675,3,SBD,
Charlene Raye Tugade,F,Raw,Philippines,Women's Raw Open,80.8,84,142.5,-155,155,155,70,-75,-75,70,160,-170,170,170,395,3,SBD,
April Iris Williams,F,Raw,Philippines,Women's Raw Open,77.5,84,120,122.5,135,135,55,57.5,60,60,155,167.5,172.5,172.5,367.5,4,SBD,
Lance Gabriel Laquian,M,Raw,Philippines,Men's Raw Junior,58.35,59,165,170,175,175,87.5,-90,-90,87.5,182.5,-190,-190,182.5,445,1,SBD,
Cheah Yee Hang,M,Raw,Malaysia,Men's Raw Open,73.1,74,190,205,212.5,212.5,122.5,130,-135,130,240,255,262.5,262.5,605,3,SBD,
Maphi Daniel Polvora,M,Raw,Philippines,Men's Raw Junior,64.5,66,155,162.5,170,170,117.5,125,-130,125,210,222.5,227.5,227.5,522.5,2,SBD,
James Barcelo,M,Raw,Singapore,Men's Raw Open,92.75,93,215,222.5,-225,222.5,142.5,-147.5,-150,142.5,235,242.5,-247.5,242.5,607.5,5,SBD,
James Emmanuel Sy,M,Raw,Philippines,Men's Raw Junior,72.4,74,200,215,222.5,222.5,105,115,120,120,260,276,-283,276,618.5,1,SBD,
Shee Dao Sen,M,Raw,Singapore,Men's Raw Open,103.65,105,-210,210,217.5,217.5,157.5,165,-170,165,257.5,270,-275,270,652.5,4,SBD,
Kang Goo Young,M,Raw,Singapore,Men's Raw Open,104.6,105,195,205,215,215,145,152.5,-160,152.5,-225,235,250,250,617.5,5,SBD,
Chong Eu Gene,M,Raw,Malaysia,Men's Raw Open,57.3,59,172.5,180,190,190,110,117.5,122.5,122.5,185,197.5,210,210,522.5,1,SBD,
Nazrin Bin Iskandar Putra,M,Raw,Malaysia,Men's Raw Sub-Junior,79.8,83,190,210,225,225,125,-140,140,140,230,240,250,250,615,1,SBD,
Vito Prasetya Yudha,M,Raw,Indonesia,Men's Raw Junior,72.65,74,170,180,-185,180,100,105,-107.5,105,190,205,-212.5,205,490,6,SBD,
Darryl Eugene Tan,M,Raw,Singapore,Men's Raw Open,106.65,120,237.5,250,262.5,262.5,167.5,175,182.5,182.5,270,285,300,300,745,3,SBD,
Muhammad Razzif Bin Rapii,M,Raw,Singapore,Men's Raw Open,146.85,120+,250,260,,260,150,-160,,150,260,-300,-300,260,670,1,SBD,
Andre,M,Raw,Indonesia,Men's Raw Junior,80.75,83,230,-237.5,240,240,160,-165,-165,160,240,250,-257.5,250,650,2,SBD,
Johan Chan,M,Raw,Philippines,Men's Raw Junior,82.95,83,212.5,222.5,227.5,227.5,137.5,142.5,-145,142.5,-280,-280,280,280,650,3,SBD,
Leo Li Ziqi,M,Raw,Singapore,Men's Raw Sub-Junior,58.85,59,155,-165,170,170,92.5,-100,100,100,185,197.5,-205,197.5,467.5,1,SBD,
Devin Aurelio,M,Raw,Indonesia,Men's Raw Junior,91.6,93,215,225,-230,225,-175,175,-180,175,250,260,272.5,272.5,672.5,1,SBD,
Prawin Jayshawn James,M,Raw,Malaysia,Men's Raw Junior,65.4,66,200,-212.5,-212.5,200,90,95,-97.5,95,230,242.5,250,250,545,1,SBD,
Ethan Goi,M,Raw,Brunei,Men's Raw Junior,91.6,93,207.5,215,-222.5,215,100,-105,-105,100,225,232.5,240,240,555,3,SBD,
Adam Bin Azmi,M,Raw,Singapore,Men's Raw Sub-Junior,64.8,66,160,170,-175,170,75,80,-82.5,80,187.5,197.5,-207.5,197.5,447.5,1,SBD,
Teoh Jiuun Yi,M,Raw,Malaysia,Men's Raw Junior,72.25,74,182.5,192.5,-195,192.5,117.5,122.5,130,130,225,240,-250,240,562.5,5,SBD,
Rhodison Jay Esmundo,M,Raw,Philippines,Men's Raw Junior,104,105,-210,210,217.5,217.5,130,135,-140,135,227.5,235,240,240,592.5,2,SBD,
Jalen Cytienne Cruz,M,Raw,Philippines,Men's Raw Junior,95.85,105,195,202.5,207.5,207.5,110,115,117.5,117.5,230,240,252.5,252.5,577.5,3,SBD,
Ross Emanuel Teodosio,M,Raw,Philippines,Men's Raw Junior,118.55,120,275,290,300,300,155,165,170,170,275,290,300,300,770,1,SBD,
Jackie Chan,M,Raw,Brunei,Men's Raw Master I,64.35,66,170,180,185,185,100,-102.5,-102.5,100,195,205,-215,205,490,1,SBD,
Merwin Torres,M,Raw,Philippines,Men's Raw Master I,72.3,74,120,147.5,-165,147.5,110,120,127.5,127.5,145,165,175,175,450,1,SBD,
Dylan Ng Keng Juay,M,Raw,Singapore,Men's Raw Sub-Junior,73.25,74,185,197.5,-207.5,197.5,95,100,-105,100,187.5,197.5,205,205,502.5,1,SBD,
Lucien Ee Sui Xin,M,Raw,Singapore,Men's Raw Sub-Junior,104.75,105,230,245,-260.5,245,127.5,135,-137.5,135,235,247.5,-255,247.5,627.5,1,SBD,
Claudia Chu Xin Mei,F,Raw,Singapore,Women's Raw Junior,43,43,72.5,-77.5,80,80,42.5,45,-47.5,45,117.5,-127.5,-127.5,117.5,242.5,1,SBD,
Shirley Xin Jin Chu,F,Raw,Singapore,Women's Raw Junior,47,47,118,123,-125.5,123,55,-60,-60,55,-120,-120,120,120,298,1,SBD,
Lim Yann,F,Raw,Singapore,Women's Raw Junior,56.25,57,87.5,95,100,100,65,70,72.5,72.5,125,135,142.5,142.5,315,3,SBD,
Chong Ming Xuan,F,Raw,Singapore,Women's Raw Junior,59.6,63,107.5,-112.5,112.5,112.5,62.5,-67.5,-67.5,62.5,-120,120,-125,120,295,1,SBD,
Syed Amirul Haziq Bin Syed Mohd Tahir,M,Raw,Malaysia,Men's Raw Junior,73.55,74,200,210,-212.5,210,115,120,-122.5,120,220,235,-240,235,565,4,SBD,
Ibnu Ayyub,M,Raw,Brunei,Men's Raw Open,58.9,59,175,180,185,185,100,105,107.5,107.5,205,217.5,-232.5,217.5,510,2,SBD,
Chong Ean Qi,F,Raw,Singapore,Women's Raw Junior,84,84,112.5,-117.5,117.5,117.5,57.5,60,-62.5,60,130,-140,-150,130,307.5,1,SBD,
Chin Yu Wai,M,Raw,Malaysia,Men's Raw Open,58.5,59,152.5,165,170,170,95,102.5,-107.5,102.5,200,215,-230,215,487.5,4,SBD,
Janice Yap Mei Ern,F,Raw,Singapore,Women's Raw Master I,50.6,52,90,95,100,100,45,-47.5,-47.5,45,120,-127.5,127.5,127.5,272.5,1,SBD,
Quak Jielin,F,Raw,Singapore,Women's Raw Master I,50.45,52,67.5,72.5,75,75,37.5,40,-42.5,40,100,-107.5,-107.5,100,215,2,SBD,
Francis Oliver Retardo,M,Raw,Philippines,Men's Raw Open,65.75,66,210,217.5,225,225,130,-135,-135,130,240,-250,-262.5,240,595,3,SBD,
Guew Jun Sheng,M,Raw,Malaysia,Men's Raw Junior,91.45,93,225,235,240,240,-110,110,-117.5,110,-240,255,-272.5,255,605,2,SBD,
Berni Ong Xiu Zhen,F,Raw,Singapore,Women's Raw Master I,56.05,57,100,105,110,110,60,62.5,-67.5,62.5,122.5,-132.5,-132.5,122.5,295,1,SBD,
Tan Sze Yin,F,Raw,Singapore,Women's Raw Master I,73.9,76,145,150,-157.5,150,80,85,-87.5,85,157.5,167.5,-175,167.5,402.5,1,SBD,
Kathryn Chong Siew Li,F,Raw,Malaysia,Women's Raw Open,51.25,52,120,125,-127.5,125,60,-67.5,-67.5,60,160,165,170,170,355,2,SBD,
Yunie Yang,F,Raw,Singapore,Women's Raw Master I,79.6,84,115,120,127.5,127.5,75,-80,-80,75,160,170,-180,170,372.5,1,SBD,
Lee Shu Wei,F,Raw,Malaysia,Women's Raw Junior,54.15,57,125,130,135,135,62.5,65,67.5,67.5,135,-145,-154,135,337.5,2,SBD,
Michelle Cheam Mei Choo,F,Raw,Singapore,Women's Raw Master II,60.2,63,50,55,60,60,-30,30,-32.5,30,77.5,82.5,-90,82.5,172.5,1,SBD,
Kevin On,M,Raw,Brunei,Men's Raw Open,80.25,83,190,197.5,205,205,135,140,-145,140,210,222.5,232.5,232.5,577.5,4,SBD,
Amirah Nursaidah Binti Amir Hamzah,F,Raw,Malaysia,Women's Raw Open,56.75,57,-122.5,122.5,-127.5,122.5,60,65,67.5,67.5,145,-157.5,-157.5,145,335,4,SBD,
Nestor Jr. Redulla,M,Raw,Philippines,Men's Raw Open,92.65,93,262.5,-270,-270,262.5,147.5,152.5,-155,152.5,295,307.5,-317.5,307.5,722.5,2,SBD,
Patricia Lynn Meyer,F,Raw,Singapore,Women's Raw Master III,50.45,52,67.5,72.5,,72.5,-35,37.5,-40,37.5,110,117.5,122.5,122.5,232.5,1,SBD,
Mickey Lim,M,Raw,Brunei,Men's Raw Open,91.85,93,-240,240,-245,240,167.5,-172.5,-172.5,167.5,205,215,-225,215,622.5,4,SBD,
Farhanna Farid,F,Raw,Singapore,Women's Raw Open,51.5,52,127.5,135,137.5,137.5,60,65,-67.5,65,192.5,201,-203,201,403.5,1,SBD,
Celine Yong,F,Raw,Malaysia,Women's Raw Junior,75.3,76,-125,127.5,135,135,62.5,70,-72.5,70,145,152.5,155,155,360,1,SBD,
Emilio Lorenzo Florendo,M,Raw,Philippines,Men's Raw Open,102,105,255,270,277.5,277.5,142.5,150,-157.5,150,260,272.5,277.5,277.5,705,2,SBD,
Ming Lau,M,Raw,Brunei,Men's Raw Open,101.25,105,235,247.5,252.5,252.5,147.5,152.5,-157.5,152.5,270,285,-290,285,690,3,SBD,
Gerlyn Ruo Ting Ong,F,Raw,Singapore,Women's Raw Open,51.25,52,115,122.5,-127.5,122.5,62.5,-67.5,-67.5,62.5,122.5,-127.5,127.5,127.5,312.5,3,SBD,
Amanda Seow Yan Ting,F,Raw,Singapore,Women's Raw Open,55.65,57,132.5,140,-145,140,80,85,-87.5,85,-175,175,-188,175,400,2,SBD,
Rafael Renzo Cahilig,M,Raw,Philippines,Men's Raw Open,119.15,120,300,320,332.5,332.5,182.5,192.5,-195,192.5,270,290,302.5,302.5,827.5,1,SBD,
Ross Emanuel Teodosio,M,Raw,Philippines,Men's Raw Open,118.55,120,275,290,300,300,155,165,170,170,275,290,300,300,770,2,SBD,
Amilia Koh,F,Raw,Singapore,Women's Raw Open,55.4,57,95,102.5,-105,102.5,45,47.5,-50,47.5,145,155,160,160,310,6,SBD,
Xu ShiYue Sylvia,F,Raw,Singapore,Women's Raw Open,67.4,69,110,117.5,-120,117.5,-62.5,-62.5,-63,,127.5,132.5,-137.5,132.5,,DQ,SBD,
Shehana Zulazmi,F,Raw,Singapore,Women's Raw Open,74.25,76,165,172.5,177.5,177.5,70,75,77.5,77.5,167.5,177.5,-185,177.5,432.5,2,SBD,
Tan Sze Yin,F,Raw,Singapore,Women's Raw Open,73.9,76,145,150,-157.5,150,80,85,-87.5,85,157.5,167.5,-175,167.5,402.5,3,SBD,
Xie Thuy Tien,F,Raw,Singapore,Women's Raw Open,80.4,84,157.5,165,-172.5,165,70,75,-77.5,75,-165,175,182.5,182.5,422.5,1,SBD,
Lee Sue Qing,F,Raw,Malaysia,Women's Raw Open,58.9,63,90,97.5,-102.5,97.5,42.5,45,47.5,47.5,147.5,155,160,160,305,2,SBD,
Sarah Widjaja,F,Raw,Singapore,Women's Raw Open,79.25,84,-132.5,135,142.5,142.5,82.5,-85,-85,82.5,172.5,180,-185,180,405,2,SBD,
