Name,Age,BirthDate,Sex,Division,Equipment,BodyweightKg,WeightClassKg,Squat1Kg,Squat2Kg,Squat3Kg,Squat4Kg,Best3SquatKg,Bench1Kg,Bench2Kg,Bench3Kg,Bench4Kg,Best3BenchKg,Deadlift1Kg,Deadlift2Kg,Deadlift3Kg,Deadlift4Kg,Best3DeadliftKg,TotalKg,Place,State,Event
Jessica Bowie,29,,F,F-OR,Wraps,47.8,48,-117.5,-117.5,117.5,,117.5,57.5,-62.5,-62.5,,57.5,145,-152.5,-152.5,,145,320,1,QLD,SBD
Meagan Sharp,22,,F,F-OR,Wraps,47.9,48,110,115,120.5,,120.5,50,55,-57.5,,55,117.5,125,131,,131,306.5,2,WA,SBD
Sarah Finlayson-Davies,45,,F,F-OR,Wraps,50.35,52,115,120,122.5,,122.5,60,62.5,65.5,,65.5,140,150,-160,,150,337.5,1,WA,SBD
Michele Sim,33,,F,F-OR,Wraps,50.35,52,-112.5,-112.5,112.5,,112.5,-65,65,-67.5,,65,122.5,132.5,,,132.5,310,2,QLD,SBD
Nicole Farrell,32,,F,F-OR,Wraps,54.85,56,-160,160,-170,,160,-75,75,-80,,75,160,170,-180,,170,405,1,QLD,SBD
Pat Widdup,49,,F,F-OR,Wraps,54.35,56,145,155,-160,,155,-70,-70,-72.5,,,140,150,-160,,150,,DQ,QLD,SBD
Danielle Fleming,42,,F,F-OR,Wraps,54.95,56,,,,,,-70,70,-75,,70,,,,,,,DQ,VIC,SBD
Aliesha Sharp,25,,F,F-OR,Wraps,59.9,60,165,172.5,177.5,,177.5,-75,75,80,,80,195,202.5,-207.5,,202.5,460,1,WA,SBD
Angela Naish,37,,F,F-OR,Wraps,59.9,60,125,130,135,,135,72.5,-77.5,-77.5,,72.5,150,-160,160,,160,367.5,2,WA,SBD
Anne-Elise Soriano,32,,F,F-OR,Wraps,59.4,60,130,145,-150,,145,55,60,65,,65,130,-137.5,-137.5,,130,340,3,WA,SBD
Danie Frigerio,26,,F,F-OR,Wraps,66.45,67.5,180,195,-205,,195,90,95,-100,,95,185,200,210,-215,210,500,1,NSW,SBD
Alicia Smith #1,32,,F,F-OR,Wraps,67,67.5,162.5,175,185,,185,87.5,92.5,95,,95,180,195,202.5,,202.5,482.5,2,VIC,SBD
Alyrah Forrest,26,,F,F-OR,Wraps,66.65,67.5,167.5,-177.5,185,,185,80,85,87.5,,87.5,172.5,-185,-185,,172.5,445,3,QLD,SBD
Liz Ramage,42,,F,F-OR,Wraps,66.85,67.5,145,155,165,,165,77.5,-82.5,-82.5,,77.5,170,185,197.5,,197.5,440,4,WA,SBD
Stephanie-Lynn McKay-Gillies,29,,F,F-OR,Wraps,66.15,67.5,-180,-180,-180,,,95,-100,-100,,95,-170,170,180,,180,,DQ,QLD,SBD
Ana Robinson,27,,F,F-OR,Wraps,74.6,75,205,215,220,,220,90,95,-100,,95,205,-220,220,,220,535,1,QLD,SBD
Jessica Day,37,,F,F-OR,Wraps,74.9,75,185,195,-205,,195,105,112.5,117.5,,117.5,210,217.5,220,,220,532.5,2,WA,SBD
Emma Hall,24,,F,F-OR,Wraps,72.65,75,162.5,175,-182.5,,175,90,95,-97.5,,95,180,190,-200,,190,460,3,WA,SBD
Lily Riley,27,,F,F-OR,Wraps,79.95,82.5,245,-260,-260,,245,110,115,117.5,120,117.5,215,230,-237.5,,230,592.5,1,QLD,SBD
Brooke Vick,41,,F,F-OR,Wraps,80.8,82.5,200,210,-217.5,,210,102.5,110,115.5,,115.5,190,200,-205.5,,200,525,2,QLD,SBD
Linda Devonshire,49,,F,F-OR,Wraps,80.6,82.5,-165,-165,165,-188,165,80,85,-87.5,,85,-170,170,180,-192.5,180,430,3,QLD,SBD
Megan Kinslow,29,,F,F-OR,Wraps,80.9,82.5,145,155,-162.5,,155,67.5,-72.5,-72.5,,67.5,165,175,-182.5,,175,397.5,4,WA,SBD
Alison Craven,42,,F,F-OR,Wraps,79.25,82.5,-150,155,165,,165,80,85,-90,,85,145,-157.5,-157.5,,145,395,5,WA,SBD
Beck Middleton,39,,F,F-OR,Wraps,79.7,82.5,135,145,150,,150,85,90,-92.5,,90,145,152.5,-160,,152.5,392.5,6,SA,SBD
Paris Cameron-Morley,25,,F,F-OR,Wraps,84.75,90,190,-200,200,,200,75,80,-85,,80,190,205,212.5,,212.5,492.5,1,NSW,SBD
Lisa Retallack,41,,F,F-OR,Wraps,88.1,90,165,175,182.5,,182.5,80,85,87.5,,87.5,175,190,-200,,190,460,2,WA,SBD
Jessica Carmichael,29,,F,F-OR,Wraps,89.2,90,-142.5,142.5,157.5,,157.5,67.5,72.5,-77.5,,72.5,150,162.5,-170,,162.5,392.5,3,WA,SBD
Soraya Timms,37,,F,F-OR,Wraps,107.8,110,-225,225,-245,,225,120,130,-137.5,,130,195,210,-222.5,,210,565,1,NSW,SBD
Lindy Davis,49,,F,F-OR,Wraps,96,110,182.5,195,205,,205,87.5,95,-100,,95,182.5,192.5,200,,200,500,2,QLD,SBD
Ebony Waru,46,,F,F-OR,Wraps,109.95,110,160,170,-180,,170,95,100,-105,,100,155,170,180,,180,450,3,WA,SBD
Candice Boynton,46,,F,F-OR,Wraps,99.85,110,130,-140,-140,,130,70,75,-77.5,,75,150,160,-175,,160,365,4,QLD,SBD
Kalina Vikilani,34,,F,F-OR,Wraps,132.45,110+,270,-285,285,-292.5,285,132.5,-140,-140,,132.5,185,200,212.5,,212.5,630,1,NSW,SBD
Christina Tsatsoulis,31,,F,F-OR,Wraps,125.45,110+,150,165,175,,175,90,95,100,,100,170,185,195,,195,470,2,VIC,SBD
Adela Greenbaum,29,,F,F-OR,Wraps,117.3,110+,-160,160,175,,175,95,100,-107.5,,100,160,172.5,180,,180,455,3,ACT,SBD
Clayton Johannesen,18,,M,M-OR,Wraps,54.65,56,150,-160,-160,,150,90,95.5,-100,,95.5,160,171,-175,,171,416.5,1,NSW,SBD
Vinh Nguyen #4,28,,M,M-OR,Wraps,66.75,67.5,180,200,215,,215,120,125,130,,130,215,232.5,240,,240,585,1,WA,SBD
Manh Doan,21,,M,M-OR,Wraps,66.45,67.5,170,-205,212.5,,212.5,125,135,142.5,,142.5,195,-220,-222.5,,195,550,2,WA,SBD
Sean Coll,42,,M,M-OR,Wraps,64.4,67.5,175,-185,185,,185,92.5,100,105,,105,192.5,202.5,210,,210,500,3,WA,SBD
George Kalitsis,20,,M,M-OR,Wraps,67.35,67.5,-165,165,170,,170,110,115,117.5,,117.5,200,207.5,-217.5,,207.5,495,4,NT,SBD
Jayden Bartlett,24,,M,M-OR,Wraps,73.75,75,-300,300,315,-325,315,172.5,180,-182.5,,180,-242.5,-242.5,242.5,,242.5,737.5,1,NSW,SBD
Mat Bailey,33,,M,M-OR,Wraps,74.75,75,175,190,-195,,190,142.5,150,-155,,150,210,225,-230,,225,565,2,WA,SBD
Daniel Celentano,33,,M,M-OR,Wraps,74.9,75,170,180,-190,,180,92.5,-97.5,-97.5,,92.5,200,-217.5,-217.5,,200,472.5,3,WA,SBD
Ben Smith #1,27,,M,M-OR,Wraps,81.5,82.5,-290,290,-310,,290,160,-170,170,,170,275,290,302.5,,302.5,762.5,1,SA,SBD
Brendan Murphy #1,22,,M,M-OR,Wraps,82.5,82.5,250,257.5,265,,265,135,142.5,-147.5,,142.5,245,255,277.5,,277.5,685,2,WA,SBD
Brad Guy,28,,M,M-OR,Wraps,81.6,82.5,230,245,-250,,245,142.5,150,-155,,150,255,275,282.5,,282.5,677.5,3,QLD,SBD
Michael Moralee,29,,M,M-OR,Wraps,81.75,82.5,240,255,265,,265,140,152.5,157.5,,157.5,225,245,255,,255,677.5,4,WA,SBD
Matthew Cheesman,21,,M,M-OR,Wraps,82.45,82.5,-237.5,237.5,245,252.5,245,145,150,-155,,150,245,255,262.5,,262.5,657.5,5,QLD,SBD
James Stevens #1,29,,M,M-OR,Wraps,83.1,90,275,290,300,,300,167.5,-177.5,177.5,,177.5,270,290,-300,,290,767.5,G,WA,SBD
Dean Thompson,23,,M,M-OR,Wraps,84.3,90,230,-237.5,-237.5,,230,130,137.5,142.5,,142.5,235,250,260,,260,632.5,G,QLD,SBD
Garth Cochrane,33,,M,M-OR,Wraps,87.55,90,-280,280,-305,,280,167.5,180,187.5,,187.5,-275,295,-310,,295,762.5,1,WA,SBD
Matthew Kennelly,33,,M,M-OR,Wraps,89.85,90,270,287.5,295,,295,170,182.5,-187.5,,182.5,265,282.5,-300,,282.5,760,2,WA,SBD
Shay Carroll,25,,M,M-OR,Wraps,89.65,90,255,-265,265,,265,150,162.5,172.5,,172.5,285,300,315,,315,752.5,3,QLD,SBD
Daniel Ryan #1,34,,M,M-OR,Wraps,89.25,90,280,295,-300,,295,157.5,-165,-165,,157.5,290,-300,-315,,290,742.5,4,NSW,SBD
Jakob Parr,22,,M,M-OR,Wraps,89.65,90,270,290,302.5,,302.5,132.5,142.5,-147.5,,142.5,230,257.5,285,-305.5,285,730,5,WA,SBD
Dan Maddock,28,,M,M-OR,Wraps,89.75,90,265,280,-290,,280,160,-170,170,,170,265,280,-295,,280,730,6,WA,SBD
Adeeb Rahman,30,,M,M-OR,Wraps,88.1,90,210,230,,,230,172.5,185,-192.5,,185,280,300,-307.5,,300,715,7,WA,SBD
Darwin Suteerawanit,27,,M,M-OR,Wraps,89.65,90,-300,-300,-300,,,170,175,,,175,335,-355,,,335,,DQ,WA,SBD
Ahmed Hulameh,39,,M,M-OR,Wraps,89.85,90,-300,-300,-300,,,160,-170,,,160,,,,,,,DQ,WA,SBD
Rait Sagor,32,,M,M-OR,Wraps,99.95,100,320,340,-350,,340,190,-200,,,190,370,-400,,,370,900,1,WA,SBD
Jack Knowles,26,,M,M-OR,Wraps,99.65,100,295,305,312.5,,312.5,207.5,215,220,-223,220,265,280,292.5,,292.5,825,2,WA,SBD
Cody Stewart,31,,M,M-OR,Wraps,99.45,100,-255,270,-285,,270,155,167.5,172.5,,172.5,-285,305,-312.5,,305,747.5,3,WA,SBD
Cameron Langeberg,34,,M,M-OR,Wraps,99.8,100,287.5,307.5,-317.5,,307.5,160,172.5,180,,180,255,-267.5,-267.5,,255,742.5,4,WA,SBD
Taj Smith,23,,M,M-OR,Wraps,99.7,100,275,290,-300,,290,130,-140,140,,140,285,302.5,-310,,302.5,732.5,5,WA,SBD
Sheyde Furniss,24,,M,M-OR,Wraps,98.4,100,260,-280,285,,285,155,162.5,170,,170,245,260,270,,270,725,6,QLD,SBD
Kyle Caplan,23,,M,M-OR,Wraps,98.1,100,250,270,-285,,270,140,150,160,,160,270,285,290,,290,720,7,WA,SBD
Hung Vo,31,,M,M-OR,Wraps,99.15,100,262.5,285,-295,,285,140,150,160,,160,245,260,-272.5,,260,705,8,WA,SBD
Max Warren,27,,M,M-OR,Wraps,98.45,100,245,-265,270,,270,150,160,167.5,,167.5,240,260,-267.5,,260,697.5,9,QLD,SBD
Matt Medlin,43,,M,M-OR,Wraps,91.9,100,270,-290,-290,,270,140,147.5,-152.5,,147.5,225,240,-252.5,,240,657.5,10,NSW,SBD
Zachariah Penboss,22,,M,M-OR,Wraps,96.75,100,245,-250,250,,250,-170,-177.5,,,,240,252.5,-265,,252.5,,DQ,QLD,SBD
Max Jones #1,29,,M,M-OR,Wraps,109.2,110,355,-380,-380,,355,200,-207.5,,,200,315,330,-345,,330,885,1,NSW,SBD
Raido Ruven,34,,M,M-OR,Wraps,109.3,110,340,355,365,,365,180,187.5,192.5,,192.5,295,-315,-315,,295,852.5,2,QLD,SBD
Dale Smith #1,38,,M,M-OR,Wraps,109.5,110,-310,-310,310,,310,185,200,-205,,200,290,310,325,,325,835,3,WA,SBD
Brock Ridsdale,31,,M,M-OR,Wraps,109.9,110,300,325,-332.5,,325,185,195,200,,200,275,290,-305,,290,815,4,QLD,SBD
Josh Perry,24,,M,M-OR,Wraps,106.6,110,260,280,-295,,280,190,205,212.5,,212.5,280,-300,-300,,280,772.5,5,WA,SBD
Tim Howlinson,32,,M,M-OR,Wraps,107.1,110,-280,280,-290,,280,170,-180,,,170,280,300,312.5,,312.5,762.5,6,WA,SBD
Igor Bahtjak,24,,M,M-OR,Wraps,107.9,110,270,-290,290,,290,175,182.5,-187.5,,182.5,270,290,-300,,290,762.5,7,VIC,SBD
Jack Wilkins,20,,M,M-OR,Wraps,108.85,110,300,-320,320,,320,140,147.5,150,,150,250,270,-280,,270,740,8,QLD,SBD
Alex Hockley,24,,M,M-OR,Wraps,108.25,110,-290,-290,-300,,,182.5,-192.5,-192.5,,182.5,280,300,-312.5,,300,,DQ,SA,SBD
Corey Alexander,27,,M,M-OR,Wraps,109.4,110,250,270,-285,,270,175,-190,-190,,175,-290,-300,,,,,DQ,QLD,SBD
Dylan Moltoni,30,,M,M-OR,Wraps,124.6,125,290,312.5,325,,325,205,215,220,,220,295,325,-340,,325,870,1,WA,SBD
Gavin Stockil,37,,M,M-OR,Wraps,122.8,125,335,355,-365,,355,190,200,210,,210,275,295,-305,,295,860,2,WA,SBD
Brendon McEntyre,44,,M,M-OR,Wraps,122.25,125,300,322.5,332.5,,332.5,160,175,185,,185,270,-290,290,,290,807.5,3,WA,SBD
Jordan Wood,29,,M,M-OR,Wraps,121.8,125,270,290,-300,,290,180,190,-195,,190,270,290,300,,300,780,4,WA,SBD
Joshua Stevens,30,,M,M-OR,Wraps,122.9,125,280,300,-310,,300,190,-200,-200,,190,265,-280,-280,,265,755,5,QLD,SBD
Blake Camilleri,32,,M,M-OR,Wraps,117.8,125,235,-252.5,-252.5,,235,170,180,-190,,180,275,295,307.5,,307.5,722.5,6,WA,SBD
Luke Hare,27,,M,M-OR,Wraps,121.8,125,280,-300,-300,,280,160,170,175,,175,240,260,267.5,,267.5,722.5,7,QLD,SBD
Jack Barbour,21,,M,M-OR,Wraps,131.7,140,300,315,327.5,,327.5,165,170,-175,,170,320,335,340,,340,837.5,1,,SBD
Dan Buckler,44,,M,M-OR,Wraps,129.75,140,260,290,-310,,290,165,172.5,-180,,172.5,285,307.5,316,,316,778.5,2,NSW,SBD
Haven Down,30,,M,M-OR,Wraps,139.85,140,270,285,-297.5,,285,170,182.5,,,182.5,280,300,305,,305,772.5,3,WA,SBD
Tim Colton,32,,M,M-OR,Wraps,137.5,140,245,260,272.5,,272.5,145,155,-160,,155,270,285,-292.5,,285,712.5,4,NSW,SBD
Stephen Koutsouliotis,25,,M,M-OR,Wraps,137.55,140,255,262.5,270,,270,142.5,-147.5,-147.5,,142.5,260,275,280,,280,692.5,5,SA,SBD
Matthew Atkinson,34,,M,M-OR,Wraps,178.05,140+,-250,260,270,,270,170,180,-185,,180,240,250,,,250,700,1,QLD,SBD
